DRAM/DDRRAM/DDRRAM.sim/sim_1/behav/xsim/dump.vcd
$date
   Thu Mar  5 11:30:42 2026
$end

$version
  2025.1.0
  $dumpfile ("dump.vcd") 
$end

$timescale
  1ps
$end

$scope module tb_DRAM_ctl $end
$var reg 1 ! clk $end
$var reg 1 " rstn $end
$var reg 1 # i_req $end
$var reg 1 $ o_ack $end
$var reg 1 % i_write $end
$var reg 14 & i_addr [13:0] $end
$var reg 64 ' i_wdata [63:0] $end
$var reg 1 ( o_rd_en $end
$var reg 64 ) o_rdata [63:0] $end
$var reg 3 * current_phase_out [2:0] $end
$var reg 1 + ck_t $end
$var reg 1 , ck_c $end
$var wire 1 - cke $end
$var wire 1 . csn $end
$var wire 1 / actn $end
$var wire 3 0 bg [2:0] $end
$var wire 3 1 ba [2:0] $end
$var wire 18 2 a [17:0] $end
$var wire 8 3 dq [7:0] $end
$var wire 1 4 dqs_t $end
$var wire 1 5 dqs_c $end
$scope module dut $end
$var wire 1 6 clk $end
$var wire 1 7 rstn $end
$var wire 1 8 i_req $end
$var reg 1 $ o_ack $end
$var wire 1 9 i_write $end
$var wire 14 : i_addr [13:0] $end
$var wire 64 ; i_wdata [63:0] $end
$var wire 1 < o_rd_en $end
$var wire 64 = o_rdata [63:0] $end
$var wire 1 > ck_t $end
$var wire 1 ? ck_c $end
$var reg 1 @ cke $end
$var reg 1 A csn $end
$var reg 1 B actn $end
$var reg 3 C bg [2:0] $end
$var reg 3 D ba [2:0] $end
$var reg 18 E a [17:0] $end
$var wire 3 F current_phase_out [2:0] $end
$var wire 8 3 dq [7:0] $end
$var wire 1 4 dqs_t $end
$var wire 1 5 dqs_c $end
$var reg 3 G current_phase [2:0] $end
$var reg 6 H cnt [5:0] $end
$var reg 4 I data_cnt [3:0] $end
$var reg 14 J addr_reg [13:0] $end
$var reg 64 K w_reg_data [63:0] $end
$var reg 64 L r_reg_data [63:0] $end
$var reg 1 M MRS_flag $end
$var reg 1 N rstart $end
$var reg 1 O i_req_reg $end
$var reg 1 P i_write_reg $end
$var reg 6 Q tCL_reg [5:0] $end
$var reg 6 R tCWL_reg [5:0] $end
$var reg 6 S tRCD_reg [5:0] $end
$var reg 6 T tRP_reg [5:0] $end
$var wire 4 U w_row [3:0] $end
$var wire 4 V w_col [3:0] $end
$var wire 3 W w_bg [2:0] $end
$var wire 3 X w_ba [2:0] $end
$var wire 8 Y dqw_data [7:0] $end
$scope module dram_cell $end
$var wire 1 > ck_t $end
$var wire 1 ? ck_c $end
$var wire 1 @ cke $end
$var wire 1 A csn $end
$var wire 1 B actn $end
$var wire 3 C bg [2:0] $end
$var wire 3 D ba [2:0] $end
$var wire 18 E a [17:0] $end
$var wire 8 3 dq [7:0] $end
$var wire 1 4 dqs_t $end
$var wire 1 5 dqs_c $end
$var wire 5 Z opcode [4:0] $end
$var reg 1 [ read_op $end
$var reg 1 \ write_op $end
$var reg 1 ] start $end
$var wire 1 ^ read_start $end
$var wire 1 _ write_start $end
$var reg 5 ` opcode_reg [4:0] $end
$var reg 3 a bg_reg [2:0] $end
$var reg 3 b ba_reg [2:0] $end
$var reg 4 c row_reg [3:0] $end
$var wire 4 d row [3:0] $end
$var wire 4 e col [3:0] $end
$var reg 8 f dq_o [7:0] $end
$var wire 1 g dq_oe $end
$var reg 6 h cnt [5:0] $end
$var reg 4 i cnt_out [3:0] $end
$scope begin Block187_2 $end
$var reg 32 j i [31:0] $end
$scope begin Block187_3 $end
$var reg 32 k j [31:0] $end
$scope begin Block188_4 $end
$var reg 32 l k [31:0] $end
$scope begin Block188_5 $end
$var reg 32 m l [31:0] $end
$upscope $end
$upscope $end
$upscope $end
$upscope $end
$upscope $end
$upscope $end
$upscope $end
$enddefinitions $end

#0
$dumpvars
0!
0"
x#
x$
x%
bx &
bx '
0(
bx )
b0 *
0+
1,
0-
1.
1/
b0 0
b0 1
b0 2
bx 3
x4
x5
06
07
x8
x9
bx :
bx ;
0<
bx =
0>
1?
0@
1A
1B
b0 C
b0 D
b0 E
b0 F
b0 G
b0 H
b0 I
bx J
bx K
bx L
0M
xN
xO
xP
bx Q
bx R
bx S
bx T
bx U
bx V
bx W
bx X
bx Y
b11000 Z
0[
0\
0]
0^
0_
bx `
bx a
bx b
bx c
b0 d
b0 e
bx f
0g
bx h
b0 i
b10000 j
b10000 k
b110 l
b110 m
$end

#3000
1!
1"
1+
0,
16
17
1>
0?
b11000 `

#6000
0!
0+
1,
06
0>
1?

#9000
1!
0#
0%
b11111110101011 &
b0 '
b1 *
1+
0,
1-
0.
16
08
09
b11111110101011 :
b0 ;
1>
0?
1@
0A
b1 F
b1 G
b1000 Z

#12000
0!
0+
1,
06
0>
1?

#15000
1!
1+
0,
16
1>
0?
1M
b1000 `

#18000
0!
0+
1,
06
0>
1?

#21000
1!
1%
b1000010010010 &
b0 )
b10 *
1+
0,
1.
b11100000000000000 2
bz 3
z4
z5
16
19
b1000010010010 :
b0 =
1>
0?
1A
b11100000000000000 E
b10 F
b10 G
b0 K
b0 L
0N
b1010 Q
b1011 R
b1001 S
b1000 T
bz Y
b11111 Z

#24000
0!
0+
1,
06
0>
1?

#27000
1!
0$
b11 *
1+
0,
0.
0/
b10 0
b10 1
b11101000000010010 2
16
1>
0?
0A
0B
b10 C
b10 D
b11101000000010010 E
b11 F
b11 G
b1000010010010 J
0O
1P
b100 U
b10 V
b10 W
b10 X
b111 Z
b11111 `
b100 d

#30000
0!
0+
1,
06
0>
1?

#33000
1!
1+
0,
16
1>
0?
b1 H
b111 `
b10 a
b10 b
b100 c
b0 h

#36000
0!
0+
1,
06
0>
1?

#39000
1!
1+
0,
16
1>
0?
b10 H

#42000
0!
0+
1,
06
0>
1?

#45000
1!
1+
0,
16
1>
0?
b11 H

#48000
0!
0+
1,
06
0>
1?

#51000
1!
1+
0,
16
1>
0?
b100 H

#54000
0!
0+
1,
06
0>
1?

#57000
1!
1+
0,
16
1>
0?
b101 H

#60000
0!
0+
1,
06
0>
1?

#63000
1!
1+
0,
16
1>
0?
b110 H

#66000
0!
0+
1,
06
0>
1?

#69000
1!
1+
0,
16
1>
0?
b111 H

#72000
0!
0+
1,
06
0>
1?

#75000
1!
1+
0,
16
1>
0?
b1000 H

#78000
0!
0+
1,
06
0>
1?

#81000
1!
b100 *
1+
0,
1/
b10000000010000000 2
16
1>
0?
1B
b10000000010000000 E
b100 F
b100 G
b0 H
b1100 Z
b0 d
b10 e

#84000
0!
0+
1,
06
0>
1?

#87000
1!
1+
0,
16
1>
0?
b1 H
1\
b1100 `
b0 h

#90000
0!
0+
1,
06
0>
1?

#93000
1!
1+
0,
16
1>
0?
b10 H
b1 h

#96000
0!
0+
1,
06
0>
1?

#99000
1!
1+
0,
16
1>
0?
b11 H
b10 h

#102000
0!
0+
1,
06
0>
1?

#105000
1!
1+
0,
16
1>
0?
b100 H
b11 h

#108000
0!
0+
1,
06
0>
1?

#111000
1!
1+
0,
16
1>
0?
b101 H
b100 h

#114000
0!
0+
1,
06
0>
1?

#117000
1!
1+
0,
16
1>
0?
b110 H
b101 h

#120000
0!
0+
1,
06
0>
1?

#123000
1!
1+
0,
16
1>
0?
b111 H
b110 h

#126000
0!
0+
1,
06
0>
1?

#129000
1!
1+
0,
16
1>
0?
b1000 H
b111 h

#132000
0!
0+
1,
06
0>
1?

#135000
1!
1+
0,
16
1>
0?
b1001 H
b1000 h

#138000
0!
0+
1,
06
0>
1?

#141000
1!
1+
0,
16
1>
0?
b1010 H
b1001 h

#144000
0!
0+
1,
06
0>
1?

#147000
1!
1+
0,
b0 3
14
05
16
1>
0?
b1011 H
1N
b0 Y
b1010 h

#150000
0!
0+
1,
04
15
06
0>
1?

#153000
1!
1+
0,
14
05
16
1>
0?
b1100 H
b1 I
1]
1_
b0 h

#156000
0!
0+
1,
04
15
06
0>
1?

#159000
1!
1+
0,
14
05
16
1>
0?
b1101 H
b10 I
b1 i

#162000
0!
0+
1,
04
15
06
0>
1?

#165000
1!
1+
0,
14
05
16
1>
0?
b1110 H
b11 I
b10 i

#168000
0!
0+
1,
04
15
06
0>
1?

#171000
1!
1+
0,
14
05
16
1>
0?
b1111 H
b100 I
b11 i

#174000
0!
0+
1,
04
15
06
0>
1?

#177000
1!
1+
0,
14
05
16
1>
0?
b10000 H
b101 I
b100 i

#180000
0!
0+
1,
04
15
06
0>
1?

#183000
1!
1+
0,
14
05
16
1>
0?
b10001 H
b110 I
b101 i

#186000
0!
0+
1,
04
15
06
0>
1?

#189000
1!
1+
0,
14
05
16
1>
0?
b10010 H
b111 I
b110 i

#192000
0!
0+
1,
04
15
06
0>
1?

#195000
1!
b110 *
1+
0,
b11100000000000000 2
bz 3
z4
z5
16
1>
0?
b11100000000000000 E
b110 F
b110 G
b0 H
b0 I
0N
bz Y
b1111 Z
b0 e
b111 i

#198000
0!
0+
1,
06
0>
1?

#201000
1!
1+
0,
16
1>
0?
b1 H
0\
0]
0_
b1111 `
b0 i

#204000
0!
0+
1,
06
0>
1?

#207000
1!
1+
0,
16
1>
0?
b10 H

#210000
0!
0+
1,
06
0>
1?

#213000
1!
1+
0,
16
1>
0?
b11 H

#216000
0!
0+
1,
06
0>
1?

#219000
1!
1+
0,
16
1>
0?
b100 H

#222000
0!
0+
1,
06
0>
1?

#225000
1!
1+
0,
16
1>
0?
b101 H

#228000
0!
0+
1,
06
0>
1?

#231000
1!
1+
0,
16
1>
0?
b110 H

#234000
0!
0+
1,
06
0>
1?

#237000
1!
1+
0,
16
1>
0?
b111 H

#240000
0!
0+
1,
06
0>
1?

#243000
1!
b10 *
1+
0,
1.
16
1>
0?
1A
b10 F
b10 G
b0 H
0M
b11111 Z

#246000
0!
0+
1,
06
0>
1?

#249000
1!
b11 *
1+
0,
0.
0/
b11101000000010010 2
16
1>
0?
0A
0B
b11101000000010010 E
b11 F
b11 G
b111 Z
b11111 `
b100 d

#252000
0!
0+
1,
06
0>
1?

#255000
1!
1+
0,
16
1>
0?
b1 H
b111 `

#258000
0!
0+
1,
06
0>
1?

#261000
1!
1+
0,
16
1>
0?
b10 H

#264000
0!
0+
1,
06
0>
1?

#267000
1!
1+
0,
16
1>
0?
b11 H

#270000
0!
0+
1,
06
0>
1?

#273000
1!
1+
0,
16
1>
0?
b100 H

#276000
0!
0+
1,
06
0>
1?

#279000
1!
1+
0,
16
1>
0?
b101 H

#282000
0!
0+
1,
06
0>
1?

#285000
1!
1+
0,
16
1>
0?
b110 H

#288000
0!
0+
1,
06
0>
1?

#291000
1!
1+
0,
16
1>
0?
b111 H

#294000
0!
0+
1,
06
0>
1?

#297000
1!
1+
0,
16
1>
0?
b1000 H

#300000
0!
0+
1,
06
0>
1?

#303000
1!
b100 *
1+
0,
1/
b10000000010000000 2
16
1>
0?
1B
b10000000010000000 E
b100 F
b100 G
b0 H
b1100 Z
b0 d
b10 e

#306000
0!
0+
1,
06
0>
1?

#309000
1!
1+
0,
16
1>
0?
b1 H
1\
b1100 `
b0 h

#312000
0!
0+
1,
06
0>
1?

#315000
1!
1+
0,
16
1>
0?
b10 H
b1 h

#318000
0!
0+
1,
06
0>
1?

#321000
1!
1+
0,
16
1>
0?
b11 H
b10 h

#324000
0!
0+
1,
06
0>
1?

#327000
1!
1+
0,
16
1>
0?
b100 H
b11 h

#330000
0!
0+
1,
06
0>
1?

#333000
1!
1+
0,
16
1>
0?
b101 H
b100 h

#336000
0!
0+
1,
06
0>
1?

#339000
1!
1+
0,
16
1>
0?
b110 H
b101 h

#342000
0!
0+
1,
06
0>
1?

#345000
1!
1+
0,
16
1>
0?
b111 H
b110 h

#348000
0!
0+
1,
06
0>
1?

#351000
1!
1+
0,
16
1>
0?
b1000 H
b111 h

#354000
0!
0+
1,
06
0>
1?

#357000
1!
1+
0,
16
1>
0?
b1001 H
b1000 h

#360000
0!
0+
1,
06
0>
1?

#363000
1!
1+
0,
16
1>
0?
b1010 H
b1001 h

#366000
0!
0+
1,
06
0>
1?

#369000
1!
1+
0,
b0 3
14
05
16
1>
0?
b1011 H
1N
b0 Y
b1010 h

#372000
0!
0+
1,
04
15
06
0>
1?

#375000
1!
1+
0,
14
05
16
1>
0?
b1100 H
b1 I
1]
1_
b0 h

#378000
0!
0+
1,
04
15
06
0>
1?

#381000
1!
1+
0,
14
05
16
1>
0?
b1101 H
b10 I
b1 i

#384000
0!
0+
1,
04
15
06
0>
1?

#387000
1!
1+
0,
14
05
16
1>
0?
b1110 H
b11 I
b10 i

#390000
0!
0+
1,
04
15
06
0>
1?

#393000
1!
1+
0,
14
05
16
1>
0?
b1111 H
b100 I
b11 i

#396000
0!
0+
1,
04
15
06
0>
1?

#399000
1!
1+
0,
14
05
16
1>
0?
b10000 H
b101 I
b100 i

#402000
0!
0+
1,
04
15
06
0>
1?

#405000
1!
1+
0,
14
05
16
1>
0?
b10001 H
b110 I
b101 i

#408000
0!
0+
1,
04
15
06
0>
1?

#411000
1!
1+
0,
14
05
16
1>
0?
b10010 H
b111 I
b110 i

#414000
0!
0+
1,
04
15
06
0>
1?

#417000
1!
b110 *
1+
0,
b11100000000000000 2
bz 3
z4
z5
16
1>
0?
b11100000000000000 E
b110 F
b110 G
b0 H
b0 I
0N
bz Y
b1111 Z
b0 e
b111 i

#420000
0!
0+
1,
06
0>
1?

#423000
1!
1+
0,
16
1>
0?
b1 H
0\
0]
0_
b1111 `
b0 i

#426000
0!
0+
1,
06
0>
1?

#429000
1!
1+
0,
16
1>
0?
b10 H

#432000
0!
0+
1,
06
0>
1?

#435000
1!
1+
0,
16
1>
0?
b11 H

#438000
0!
0+
1,
06
0>
1?

#441000
1!
1+
0,
16
1>
0?
b100 H

#444000
0!
0+
1,
06
0>
1?

#447000
1!
1+
0,
16
1>
0?
b101 H

#450000
0!
0+
1,
06
0>
1?

#453000
1!
1+
0,
16
1>
0?
b110 H

#456000
0!
0+
1,
06
0>
1?

#459000
1!
1+
0,
16
1>
0?
b111 H

#462000
0!
0+
1,
06
0>
1?

#465000
1!
b10 *
1+
0,
1.
16
1>
0?
1A
b10 F
b10 G
b0 H
b11111 Z

#468000
0!
0+
1,
06
0>
1?

#471000
1!
b11 *
1+
0,
0.
0/
b11101000000010010 2
16
1>
0?
0A
0B
b11101000000010010 E
b11 F
b11 G
b111 Z
b11111 `
b100 d

#474000
0!
0+
1,
06
0>
1?

#477000
1!
1+
0,
16
1>
0?
b1 H
b111 `

#480000
0!
0+
1,
06
0>
1?

#483000
1!
1+
0,
16
1>
0?
b10 H

#486000
0!
0+
1,
06
0>
1?

#489000
1!
1+
0,
16
1>
0?
b11 H

#492000
0!
0+
1,
06
0>
1?

#495000
1!
1+
0,
16
1>
0?
b100 H

#498000
0!
0+
1,
06
0>
1?

#501000
1!
1+
0,
16
1>
0?
b101 H

#504000
0!
0+
1,
06
0>
1?

#507000
1!
1+
0,
16
1>
0?
b110 H

#510000
0!
0+
1,
06
0>
1?

#513000
1!
1+
0,
16
1>
0?
b111 H

#516000
0!
0+
1,
06
0>
1?

#519000
1!
1+
0,
16
1>
0?
b1000 H

#522000
0!
0+
1,
06
0>
1?

#525000
1!
b100 *
1+
0,
1/
b10000000010000000 2
16
1>
0?
1B
b10000000010000000 E
b100 F
b100 G
b0 H
b1100 Z
b0 d
b10 e

#528000
0!
0+
1,
06
0>
1?

#531000
1!
1+
0,
16
1>
0?
b1 H
1\
b1100 `
b0 h

#534000
0!
0+
1,
06
0>
1?

#537000
1!
1+
0,
16
1>
0?
b10 H
b1 h

#540000
0!
0+
1,
06
0>
1?

#543000
1!
1+
0,
16
1>
0?
b11 H
b10 h

#546000
0!
0+
1,
06
0>
1?

#549000
1!
1+
0,
16
1>
0?
b100 H
b11 h

#552000
0!
0+
1,
06
0>
1?

#555000
1!
1+
0,
16
1>
0?
b101 H
b100 h

#558000
0!
0+
1,
06
0>
1?

#561000
1!
1+
0,
16
1>
0?
b110 H
b101 h

#564000
0!
0+
1,
06
0>
1?

#567000
1!
1+
0,
16
1>
0?
b111 H
b110 h

#570000
0!
0+
1,
06
0>
1?

#573000
1!
1+
0,
16
1>
0?
b1000 H
b111 h

#576000
0!
0+
1,
06
0>
1?

#579000
1!
1+
0,
16
1>
0?
b1001 H
b1000 h

#582000
0!
0+
1,
06
0>
1?

#585000
1!
1+
0,
16
1>
0?
b1010 H
b1001 h

#588000
0!
0+
1,
06
0>
1?

#591000
1!
1+
0,
b0 3
14
05
16
1>
0?
b1011 H
1N
b0 Y
b1010 h

#594000
0!
0+
1,
04
15
06
0>
1?

#597000
1!
1+
0,
14
05
16
1>
0?
b1100 H
b1 I
1]
1_
b0 h

#600000
0!
0+
1,
04
15
06
0>
1?

#603000
1!
1+
0,
14
05
16
1>
0?
b1101 H
b10 I
b1 i

#606000
0!
0+
1,
04
15
06
0>
1?

#609000
1!
1+
0,
14
05
16
1>
0?
b1110 H
b11 I
b10 i

#612000
0!
0+
1,
04
15
06
0>
1?

#615000
1!
1+
0,
14
05
16
1>
0?
b1111 H
b100 I
b11 i

#618000
0!
0+
1,
04
15
06
0>
1?

#621000
1!
1+
0,
14
05
16
1>
0?
b10000 H
b101 I
b100 i

#624000
0!
0+
1,
04
15
06
0>
1?

#627000
1!
1+
0,
14
05
16
1>
0?
b10001 H
b110 I
b101 i

#630000
0!
0+
1,
04
15
06
0>
1?

#633000
1!
1+
0,
14
05
16
1>
0?
b10010 H
b111 I
b110 i

#636000
0!
0+
1,
04
15
06
0>
1?

#639000
1!
b110 *
1+
0,
b11100000000000000 2
bz 3
z4
z5
16
1>
0?
b11100000000000000 E
b110 F
b110 G
b0 H
b0 I
0N
bz Y
b1111 Z
b0 e
b111 i

#642000
0!
0+
1,
06
0>
1?

#645000
1!
1+
0,
16
1>
0?
b1 H
0\
0]
0_
b1111 `
b0 i

#648000
0!
0+
1,
06
0>
1?

#651000
1!
1+
0,
16
1>
0?
b10 H

#654000
0!
0+
1,
06
0>
1?

#657000
1!
1+
0,
16
1>
0?
b11 H

#660000
0!
0+
1,
06
0>
1?

#663000
1!
1+
0,
16
1>
0?
b100 H

#666000
0!
0+
1,
06
0>
1?

#669000
1!
1+
0,
16
1>
0?
b101 H

#672000
0!
0+
1,
06
0>
1?

#675000
1!
1+
0,
16
1>
0?
b110 H

#678000
0!
0+
1,
06
0>
1?

#681000
1!
1+
0,
16
1>
0?
b111 H

#684000
0!
0+
1,
06
0>
1?

#687000
1!
b10 *
1+
0,
1.
16
1>
0?
1A
b10 F
b10 G
b0 H
b11111 Z

#690000
0!
0+
1,
06
0>
1?

#693000
1!
b11 *
1+
0,
0.
0/
b11101000000010010 2
16
1>
0?
0A
0B
b11101000000010010 E
b11 F
b11 G
b111 Z
b11111 `
b100 d

#696000
0!
0+
1,
06
0>
1?

#699000
1!
1+
0,
16
1>
0?
b1 H
b111 `

#702000
0!
0+
1,
06
0>
1?

#705000
1!
1+
0,
16
1>
0?
b10 H

#708000
0!
0+
1,
06
0>
1?

#711000
1!
1+
0,
16
1>
0?
b11 H

#714000
0!
0+
1,
06
0>
1?

#717000
1!
1+
0,
16
1>
0?
b100 H

#720000
0!
0+
1,
06
0>
1?

#723000
1!
1+
0,
16
1>
0?
b101 H

#726000
0!
0+
1,
06
0>
1?

#729000
1!
1+
0,
16
1>
0?
b110 H

#732000
0!
0+
1,
06
0>
1?

#735000
1!
1+
0,
16
1>
0?
b111 H

#738000
0!
0+
1,
06
0>
1?

#741000
1!
1+
0,
16
1>
0?
b1000 H

#744000
0!
0+
1,
06
0>
1?

#747000
1!
b100 *
1+
0,
1/
b10000000010000000 2
16
1>
0?
1B
b10000000010000000 E
b100 F
b100 G
b0 H
b1100 Z
b0 d
b10 e

#750000
0!
0+
1,
06
0>
1?

#753000
1!
1+
0,
16
1>
0?
b1 H
1\
b1100 `
b0 h

#756000
0!
0+
1,
06
0>
1?

#759000
1!
1+
0,
16
1>
0?
b10 H
b1 h

#762000
0!
0+
1,
06
0>
1?

#765000
1!
1+
0,
16
1>
0?
b11 H
b10 h

#768000
0!
0+
1,
06
0>
1?

#771000
1!
1+
0,
16
1>
0?
b100 H
b11 h

#774000
0!
0+
1,
06
0>
1?

#777000
1!
1+
0,
16
1>
0?
b101 H
b100 h

#780000
0!
0+
1,
06
0>
1?

#783000
1!
1+
0,
16
1>
0?
b110 H
b101 h

#786000
0!
0+
1,
06
0>
1?

#789000
1!
1+
0,
16
1>
0?
b111 H
b110 h

#792000
0!
0+
1,
06
0>
1?

#795000
1!
1+
0,
16
1>
0?
b1000 H
b111 h

#798000
0!
0+
1,
06
0>
1?

#801000
1!
1+
0,
16
1>
0?
b1001 H
b1000 h

#804000
0!
0+
1,
06
0>
1?

#807000
1!
1+
0,
16
1>
0?
b1010 H
b1001 h

#810000
0!
0+
1,
06
0>
1?

#813000
1!
1+
0,
b0 3
14
05
16
1>
0?
b1011 H
1N
b0 Y
b1010 h

#816000
0!
0+
1,
04
15
06
0>
1?

#819000
1!
1+
0,
14
05
16
1>
0?
b1100 H
b1 I
1]
1_
b0 h

#822000
0!
0+
1,
04
15
06
0>
1?

#825000
1!
1+
0,
14
05
16
1>
0?
b1101 H
b10 I
b1 i

#828000
0!
0+
1,
04
15
06
0>
1?

#831000
1!
1+
0,
14
05
16
1>
0?
b1110 H
b11 I
b10 i

#834000
0!
0+
1,
04
15
06
0>
1?

#837000
1!
1+
0,
14
05
16
1>
0?
b1111 H
b100 I
b11 i

#840000
0!
0+
1,
04
15
06
0>
1?

#843000
1!
1+
0,
14
05
16
1>
0?
b10000 H
b101 I
b100 i

#846000
0!
0+
1,
04
15
06
0>
1?

#849000
1!
1+
0,
14
05
16
1>
0?
b10001 H
b110 I
b101 i

#852000
0!
0+
1,
04
15
06
0>
1?

#855000
1!
1+
0,
14
05
16
1>
0?
b10010 H
b111 I
b110 i

#858000
0!
0+
1,
04
15
06
0>
1?

#861000
1!
b110 *
1+
0,
b11100000000000000 2
bz 3
z4
z5
16
1>
0?
b11100000000000000 E
b110 F
b110 G
b0 H
b0 I
0N
bz Y
b1111 Z
b0 e
b111 i

#864000
0!
0+
1,
06
0>
1?

#867000
1!
1+
0,
16
1>
0?
b1 H
0\
0]
0_
b1111 `
b0 i

#870000
0!
0+
1,
06
0>
1?

#873000
1!
1+
0,
16
1>
0?
b10 H

#876000
0!
0+
1,
06
0>
1?

#879000
1!
1+
0,
16
1>
0?
b11 H

#882000
0!
0+
1,
06
0>
1?

#885000
1!
1+
0,
16
1>
0?
b100 H

#888000
0!
0+
1,
06
0>
1?

#891000
1!
1+
0,
16
1>
0?
b101 H

#894000
0!
0+
1,
06
0>
1?

#897000
1!
1+
0,
16
1>
0?
b110 H

#900000
0!
0+
1,
06
0>
1?

#903000
1!
1+
0,
16
1>
0?
b111 H

#906000
0!
0+
1,
06
0>
1?

#909000
1!
b10 *
1+
0,
1.
16
1>
0?
1A
b10 F
b10 G
b0 H
b11111 Z

#912000
0!
0+
1,
06
0>
1?

#915000
1!
b11 *
1+
0,
0.
0/
b11101000000010010 2
16
1>
0?
0A
0B
b11101000000010010 E
b11 F
b11 G
b111 Z
b11111 `
b100 d

#918000
0!
0+
1,
06
0>
1?

#921000
1!
1+
0,
16
1>
0?
b1 H
b111 `

#924000
0!
0+
1,
06
0>
1?

#927000
1!
1+
0,
16
1>
0?
b10 H

#930000
0!
0+
1,
06
0>
1?

#933000
1!
1+
0,
16
1>
0?
b11 H

#936000
0!
0+
1,
06
0>
1?

#939000
1!
1+
0,
16
1>
0?
b100 H

#942000
0!
0+
1,
06
0>
1?

#945000
1!
1+
0,
16
1>
0?
b101 H

#948000
0!
0+
1,
06
0>
1?

#951000
1!
1+
0,
16
1>
0?
b110 H

#954000
0!
0+
1,
06
0>
1?

#957000
1!
1+
0,
16
1>
0?
b111 H

#960000
0!
0+
1,
06
0>
1?

#963000
1!
1+
0,
16
1>
0?
b1000 H

#966000
0!
0+
1,
06
0>
1?

#969000
1!
b100 *
1+
0,
1/
b10000000010000000 2
16
1>
0?
1B
b10000000010000000 E
b100 F
b100 G
b0 H
b1100 Z
b0 d
b10 e

#972000
0!
0+
1,
06
0>
1?

#975000
1!
1+
0,
16
1>
0?
b1 H
1\
b1100 `
b0 h

#978000
0!
0+
1,
06
0>
1?

#981000
1!
1+
0,
16
1>
0?
b10 H
b1 h

#984000
0!
0+
1,
06
0>
1?

#987000
1!
1+
0,
16
1>
0?
b11 H
b10 h

#990000
0!
0+
1,
06
0>
1?

#993000
1!
1+
0,
16
1>
0?
b100 H
b11 h

#996000
0!
0+
1,
06
0>
1?

#999000
1!
1+
0,
16
1>
0?
b101 H
b100 h
