DRAM/DRAM_cell/DRAM_cell.sim/sim_1/behav/xsim/dump.vcd
$date
   Thu Feb 12 12:32:57 2026
$end

$version
  2025.1.0
  $dumpfile ("dump.vcd") 
$end

$timescale
  1ps
$end

$scope module tb_DRAM_interface $end
$var reg 1 ! ck_t $end
$var reg 1 " ck_c $end
$var reg 1 # cke $end
$var reg 1 $ csn $end
$var reg 1 % actn $end
$var reg 2 & bg [1:0] $end
$var reg 2 ' ba [1:0] $end
$var reg 18 ( a [17:0] $end
$var reg 1 ) burst $end
$var reg 4 * burst_count [3:0] $end
$var wire 8 + dq [7:0] $end
$var wire 1 , dqs_t $end
$var wire 1 - dqs_c $end
$var reg 8 . dq_driver [7:0] $end
$var reg 1 / dqs_t_driver $end
$var reg 1 0 dqs_c_driver $end
$var reg 1 1 drive_en $end
$upscope $end
$scope module glbl $end
$upscope $end
$enddefinitions $end

#0
$dumpvars
0!
1"
1#
1$
1%
b0 &
b0 '
b0 (
0)
b0 *
bz +
z,
z-
bx .
x/
x0
01
$end

#5000
1!
0"

#10000
0!
1"

#15000
1!
0"

#20000
0!
1"

#25000
1!
0"

#30000
0!
1"

#35000
1!
0"

#40000
0!
1"

#45000
1!
0"

#50000
0!
1"

#55000
1!
0"

#60000
0!
1"

#65000
1!
0"

#70000
0!
1"

#75000
1!
0"

#80000
0!
1"

#85000
1!
0"

#90000
0!
1"

#95000
1!
0"

#100000
0!
1"
0$
b101000 (

#105000
1!
0"

#110000
0!
1"

#115000
1!
0"

#120000
0!
1"

#125000
1!
0"
0%
b11100000001010000 (

#130000
0!
1"

#135000
1!
0"

#140000
0!
1"

#145000
1!
0"

#150000
0!
1"

#155000
1!
0"

#160000
0!
1"

#165000
1!
0"

#170000
0!
1"

#175000
1!
0"

#180000
0!
1"

#185000
1!
0"

#190000
0!
1"

#195000
1!
0"

#200000
0!
1"

#205000
1!
0"

#210000
0!
1"

#215000
1!
0"

#220000
0!
1"

#225000
1!
0"
1%
b10000000000000010 (
1)
b11 *

#230000
0!
1"

#235000
1!
0"

#240000
0!
1"

#245000
1!
0"

#250000
0!
1"

#255000
1!
0"

#260000
0!
1"

#265000
1!
0"

#270000
0!
1"

#275000
1!
0"

#280000
0!
1"

#285000
1!
0"

#290000
0!
1"

#295000
1!
0"

#300000
0!
1"

#305000
1!
0"

#310000
0!
1"

#315000
1!
0"

#320000
0!
1"

#325000
1!
0"
b10100000 +
1,
0-
b10100000 .
1/
00
11

#330000
0!
1"

#335000
1!
0"
b10100001 +
b10100001 .

#340000
0!
1"

#345000
1!
0"
b10100010 +
b10100010 .

#350000
0!
1"

#355000
1!
0"
b10100011 +
b10100011 .

#360000
0!
1"

#365000
1!
0"
bz +
z,
z-
01

#370000
0!
1"

#375000
1!
0"

#380000
0!
1"

#385000
1!
0"

#390000
0!
1"

#395000
1!
0"

#400000
0!
1"

#405000
1!
0"

#410000
0!
1"

#415000
1!
0"

#420000
0!
1"

#425000
1!
0"

#430000
0!
1"

#435000
1!
0"

#440000
0!
1"

#445000
1!
0"

#450000
0!
1"

#455000
1!
0"

#460000
0!
1"

#465000
1!
0"
b11100000000000000 (

#470000
0!
1"

#475000
1!
0"

#480000
0!
1"

#485000
1!
0"

#490000
0!
1"

#495000
1!
0"

#500000
0!
1"

#505000
1!
0"

#510000
0!
1"

#515000
1!
0"

#520000
0!
1"

#525000
1!
0"

#530000
0!
1"

#535000
1!
0"

#540000
0!
1"

#545000
1!
0"

#550000
0!
1"

#555000
1!
0"

#560000
0!
1"

#565000
1!
0"
0%
b11100000001010000 (

#570000
0!
1"

#575000
1!
0"

#580000
0!
1"

#585000
1!
0"

#590000
0!
1"

#595000
1!
0"

#600000
0!
1"

#605000
1!
0"

#610000
0!
1"

#615000
1!
0"

#620000
0!
1"

#625000
1!
0"

#630000
0!
1"

#635000
1!
0"

#640000
0!
1"

#645000
1!
0"

#650000
0!
1"

#655000
1!
0"

#660000
0!
1"

#665000
1!
0"
1%
b10100000000000010 (

