RISCV32bit/Project_folder/Pipeline_Wrapper/RISCVproj/RISCVproj.sim/sim_1/behav/xsim/ALUstage_Simulation_Waveform.vcd
$date
   Mon Apr  6 08:53:42 2026
$end

$version
  2025.1.0
  $dumpfile ("ALUstage_Simulation_Waveform.vcd") 
$end

$timescale
  1ps
$end

$scope module tb_ALU_stage $end
$scope module dut $end
$var wire 32 ! RD1E [31:0] $end
$var wire 32 " RD2E [31:0] $end
$var wire 32 # PCE [31:0] $end
$var wire 5 $ RdE [4:0] $end
$var wire 25 % ImmExtE [24:0] $end
$var wire 32 & PCPlus4E [31:0] $end
$var wire 32 ' ResultW [31:0] $end
$var wire 2 ( ForwardAE [1:0] $end
$var wire 2 ) ForwardBE [1:0] $end
$var wire 1 * RegWriteE $end
$var wire 2 + ResultSrcE [1:0] $end
$var wire 1 , MemWriteE $end
$var wire 4 - ALUControlE [3:0] $end
$var wire 1 . ALUSrcE $end
$var wire 1 / clk $end
$var wire 1 0 rstn $end
$var reg 1 1 RegWriteM $end
$var reg 2 2 ResultSrcM [1:0] $end
$var reg 1 3 MemWriteM $end
$var wire 1 4 ZeroE $end
$var reg 32 5 ALUResultM [31:0] $end
$var reg 5 6 RdM [4:0] $end
$var reg 32 7 PCPlus4M [31:0] $end
$var reg 32 8 PCTargetE [31:0] $end
$var reg 32 9 WriteDataM [31:0] $end
$var wire 32 : SrcAE [31:0] $end
$var wire 32 ; SrcBE [31:0] $end
$var wire 32 < WriteDataE [31:0] $end
$var wire 3 = wire_ALUCtl_arith [2:0] $end
$var wire 3 > wire_ALUCtl_logic [2:0] $end
$var wire 1 ? ZeroE_arith $end
$var wire 1 @ ZeroE_logic $end
$var wire 32 A wire_ALUresult [31:0] $end
$var wire 32 B wire_ALUresult_arith [31:0] $end
$var wire 32 C wire_ALUresult_logic [31:0] $end
$scope module mx1 $end
$var wire 32 ! data1 [31:0] $end
$var wire 32 ' data2 [31:0] $end
$var wire 32 5 data3 [31:0] $end
$var wire 2 ( sel [1:0] $end
$var wire 32 : out [31:0] $end
$upscope $end
$scope module mx2 $end
$var wire 32 " data1 [31:0] $end
$var wire 32 ' data2 [31:0] $end
$var wire 32 5 data3 [31:0] $end
$var wire 2 ) sel [1:0] $end
$var wire 32 < out [31:0] $end
$upscope $end
$scope module alu_arith $end
$var wire 32 : SrcAE [31:0] $end
$var wire 32 ; SrcBE [31:0] $end
$var wire 3 = ALUControlE [2:0] $end
$var reg 32 D ALUResult [31:0] $end
$var reg 1 E ZeroE $end
$var wire 32 F ADD [31:0] $end
$var wire 32 G SUB [31:0] $end
$var wire 32 H Sla [31:0] $end
$var wire 32 I Sra [31:0] $end
$var wire 32 J INC [31:0] $end
$var wire 32 K DEC [31:0] $end
$var wire 32 L NEG [31:0] $end
$upscope $end
$scope module alu_logic $end
$var wire 32 : SrcAE [31:0] $end
$var wire 32 ; SrcBE [31:0] $end
$var wire 3 > ALUControlE [2:0] $end
$var reg 32 M ALUResult [31:0] $end
$var reg 1 N ZeroE $end
$var wire 32 O Sll [31:0] $end
$var wire 32 P Srl [31:0] $end
$var wire 32 Q Slt [31:0] $end
$var wire 32 R Sltu [31:0] $end
$var wire 32 S XOR [31:0] $end
$var wire 32 T OR [31:0] $end
$var wire 32 U AND [31:0] $end
$var wire 32 V sltu_ae [31:0] $end
$var wire 32 W sltu_be [31:0] $end
$upscope $end
$upscope $end
$upscope $end
$enddefinitions $end

#0
$dumpvars
b0 !
b0 "
b0 #
b0 $
b0 %
b0 &
b0 '
b0 (
b0 )
0*
b0 +
0,
bz000 -
0.
0/
00
x1
bx 2
x3
14
b0 5
b0 6
b0 7
b0 8
b0 9
b0 :
b0 ;
b0 <
b0 =
b0 >
1?
1@
b0 A
b0 B
b0 C
b0 D
1E
b0 F
b0 G
b0 H
b0 I
b1 J
b11111111111111111111111111111111 K
b0 L
b0 M
1N
b0 O
b0 P
b1 Q
b1 R
b0 S
b0 T
b0 U
b0 V
b0 W
$end

#3000
1/
01
b0 2
03

#6000
0/

#9000
1/
10

#12000
0/

#15000
1/

#18000
0/

#21000
1/

#24000
0/

#27000
b1010 !
b10100 "
b100000000 #
b1 $
b100000100 &
1*
bz001 -
1/
b1010 :
b10100 ;
b10100 <
b0x =
b0x >
b0x A
b11110 F
b11111111111111111111111111110110 G
b101000000000000000000000 H
b1011 J
b1001 K
b11111111111111111111111111110110 L
b101000000000000000000000 O
b0 Q
b0 R
b11110 S
b11110 T
b1010 V
b10100 W

#30000
0/

#33000
b110010 !
b0 "
b100000100 #
b10 $
b100001000 &
b1111 '
b1 )
bz010 -
1/
11
b0x 5
b1 6
b100000100 7
b100000000 8
b10100 9
b110010 :
b1111 ;
b1111 <
b0x0 =
b0x0 >
b0x0 A
b1000001 F
b100011 G
b110010000000000000000 H
b110011 J
b110001 K
b11111111111111111111111111001110 L
b110010000000000000000 O
b111101 S
b111111 T
b10 U
b110010 V
b1111 W

#36000
0/

#39000
b101 !
b1100011 "
b100001000 #
b11 $
b100 %
b100001100 &
b0 '
b0 )
bz011 -
1.
1/
b0x0 5
b10 6
b100001000 7
b100000100 8
b1111 9
b101 :
b100 ;
b1100011 <
b0xx =
b0xx >
b0xx A
b1001 F
b1 G
b1010000 H
b110 J
b100 K
b11111111111111111111111111111011 L
b1010000 O
b1 S
b101 T
b100 U
b101 V
b100 W

#42000
0/

#45000
b0 !
b0 "
b100001100 #
b100 $
b0 %
b100010000 &
b1100100 '
b1 (
b1 )
bz100 -
0.
1/
b0xx 5
b11 6
b100001100 7
b100001100 8
b1100011 9
b1100100 :
b1100100 ;
b1100100 <
bx00 =
bx00 >
b0x00 A
b11001000 F
b0 G
b0 H
b1100101 J
b1100011 K
b11111111111111111111111110011100 L
b0 O
b1 Q
b1 R
b0 S
b1100100 T
b1100100 U
b1100100 V
b1100100 W

#48000
0/

#51000
b1100011 !
b100010000 #
b101 $
b100010100 &
b0 '
b0 (
b0 )
bz101 -
1/
b0x00 5
b100 6
b100010000 7
b1100100 9
b1100011 :
b0 ;
b0 <
bx0x =
bx0x >
b0x0x A
b1100011 F
b1100011 G
b1100011 H
b1100011 I
b1100100 J
b1100010 K
b11111111111111111111111110011101 L
b1100011 O
b1100011 P
b0 Q
b0 R
b1100011 S
b1100011 T
b0 U
b1100011 V
b0 W

#54000
0/

#57000
b0 !
b100010100 #
b110 $
b100011000 &
b1000 '
b1 (
bz110 -
1/
b0x0x 5
b101 6
b100010100 7
b100010000 8
b0 9
b1000 :
bx0 =
bx0 >
b0xx0 A
b1000 F
b1000 G
b1000 H
b1000 I
b1001 J
b111 K
b11111111111111111111111111111000 L
b1000 O
b1000 P
b1000 S
b1000 T
b1000 V

#60000
0/

#63000
b101 !
b100011000 #
b111 $
b100011100 &
b0 '
b0 (
bz111 -
1/
b0xx0 5
b110 6
b100011000 7
b100010100 8
b101 :
bx =
bx >
b0xxx A
b101 F
b101 G
b101 H
b101 I
b110 J
b100 K
b11111111111111111111111111111011 L
b101 O
b101 P
b101 S
b101 T
b101 V

#66000
0/

#69000
1/
b0xxx 5
b111 6
b100011100 7
b100011000 8

