DRAM/ddr_ctl_ver2/ddr_ctl_ver2.sim/sim_1/behav/xsim/dump.vcd
$date
   Tue Mar 10 07:02:08 2026
$end

$version
  2025.1.0
  $dumpfile ("dump.vcd") 
$end

$timescale
  1ps
$end

$scope module tb_ddrctl $end
$var reg 1 ! clk $end
$var reg 1 " rstn $end
$var reg 1 # i_req $end
$var reg 1 $ i_write $end
$var reg 8 % i_addr [7:0] $end
$var reg 64 & i_wdata [63:0] $end
$var wire 1 ' o_ack $end
$var wire 1 ( o_rd_en $end
$var wire 64 ) o_rdata [63:0] $end
$var wire 1 * ck_t $end
$var wire 1 + ck_c $end
$var wire 1 , cke $end
$var wire 1 - csn $end
$var wire 1 . actn $end
$var wire 1 / dqs_t $end
$var wire 1 0 dqs_c $end
$var wire 2 1 bg [1:0] $end
$var wire 2 2 ba [1:0] $end
$var wire 18 3 a [17:0] $end
$var wire 8 4 dq [7:0] $end
$scope module dut $end
$var wire 1 5 clk $end
$var wire 1 6 rstn $end
$var wire 1 7 i_req $end
$var wire 1 ' o_ack $end
$var wire 1 8 i_write $end
$var wire 8 9 i_addr [7:0] $end
$var wire 64 : i_wdata [63:0] $end
$var wire 1 ( o_rd_en $end
$var wire 64 ) o_rdata [63:0] $end
$var wire 1 * ck_t $end
$var wire 1 + ck_c $end
$var reg 1 ; cke $end
$var reg 1 < csn $end
$var reg 1 = actn $end
$var reg 2 > bg [1:0] $end
$var reg 2 ? ba [1:0] $end
$var reg 18 @ a [17:0] $end
$var wire 8 4 dq [7:0] $end
$var wire 1 / dqs_t $end
$var wire 1 0 dqs_c $end
$var reg 3 A c_state [2:0] $end
$var reg 8 B addr_reg [7:0] $end
$var reg 5 C cnt [4:0] $end
$var reg 3 D data_cnt [2:0] $end
$var reg 64 E data_reg [63:0] $end
$var reg 1 F start $end
$var reg 1 G start_reg $end
$var reg 1 H write_op $end
$var reg 1 I o_ack_reg $end
$var wire 1 J dq_oe $end
$var wire 8 K dq_r [7:0] $end
$var wire 8 L dq_w [7:0] $end
$var wire 1 M dqs_t_delay $end
$var reg 3 N n_state [2:0] $end
$var reg 1 O o_rd_en_reg $end
$var wire 8 P split_wire [7:0] $end
$scope module dram $end
$var wire 1 * ck_t $end
$var wire 1 + ck_c $end
$var wire 1 ; cke $end
$var wire 1 < csn $end
$var wire 1 = actn $end
$var wire 2 > bg [1:0] $end
$var wire 2 ? ba [1:0] $end
$var wire 18 @ a [17:0] $end
$var wire 8 4 dq [7:0] $end
$var wire 1 / dqs_t $end
$var wire 1 0 dqs_c $end
$var reg 4 Q tCWL [3:0] $end
$var reg 4 R tCL [3:0] $end
$var wire 1 S rasn $end
$var wire 1 T casn $end
$var wire 1 U wen $end
$var wire 5 V opcode [4:0] $end
$var reg 4 W row [3:0] $end
$var reg 4 X col [3:0] $end
$var reg 1 Y write_op $end
$var reg 1 Z read_op $end
$var reg 5 [ cnt [4:0] $end
$var reg 64 \ curr_data [63:0] $end
$var reg 1 ] data_write $end
$var reg 8 ^ dq_o [7:0] $end
$var wire 1 _ dq_oe $end
$var wire 8 ` dq_i [7:0] $end
$var wire 64 a read_data [63:0] $end
$scope begin Block296_9 $end
$var reg 32 b i [31:0] $end
$scope begin Block297_10 $end
$var reg 32 c j [31:0] $end
$upscope $end
$upscope $end
$upscope $end
$upscope $end
$upscope $end
$enddefinitions $end

#0
$dumpvars
0!
0"
0#
0$
b11111111 %
b0 &
0'
0(
b0 )
0*
0+
0,
1-
1.
z/
z0
b0 1
b0 2
b0 3
bz 4
05
06
07
08
b11111111 9
b0 :
0;
1<
1=
b0 >
b0 ?
b0 @
b0 A
b0 B
b0 C
b0 D
b0 E
0F
xG
0H
0I
0J
bz K
b0 L
zM
b0 N
0O
b0 P
bx Q
bx R
0S
0T
0U
b11000 V
b0 W
b0 X
0Y
0Z
b0 [
b0 \
0]
b0 ^
0_
bz `
b0 a
b10000 b
b10000 c
$end

#3000
1!
15

#6000
0!
05

#9000
1!
15

#12000
0!
05

#15000
1!
15

#18000
0!
05

#21000
1!
15

#24000
0!
05

#27000
1!
15

#30000
0!
05

#33000
1!
15

#36000
0!
05

#39000
1!
15

#42000
0!
05

#45000
1!
15

#48000
0!
05

#51000
1!
15

#54000
0!
05

#57000
1!
1"
15
16
b1 N

#60000
0!
05

#63000
1!
b0 %
1*
1,
0-
b100000000 3
15
b0 9
1;
0<
b100000000 @
b1 A
b1 C
0G
b1011 Q
b1001 R
b1000 V

#66000
0!
0*
1+
05

#69000
1!
b110 %
1*
0+
b100000110 3
15
b110 9
b100000110 @
b110 B
b10 C

#72000
0!
0*
1+
05

#75000
1!
1*
0+
15
b11 C
b1010 R

#78000
0!
0*
1+
05

#81000
1!
1*
0+
15
b100 C
b10 N

#84000
0!
0*
1+
05

#87000
1!
1#
1$
b1000 %
b1010101010101010101110111011101111001100110011001101110111011101 &
1*
0+
1-
b11100000000000000 3
15
17
18
b1000 9
b1010101010101010101110111011101111001100110011001101110111011101 :
1<
b11100000000000000 @
b10 A
b0 C
b11 N
1S
1T
1U
b11111 V

#90000
0!
0*
1+
05

#93000
1!
1'
1*
0+
0-
0.
b11100000000000110 3
15
0<
0=
b11100000000000110 @
b11 A
1H
1I
b111 V

#96000
0!
0*
1+
05

#99000
1!
0#
0'
1*
0+
b11100000000001000 3
15
07
b11100000000001000 @
b1000 B
b1 C
b1010101010101010101110111011101111001100110011001101110111011101 E
0I
b110 W

#102000
0!
0*
1+
05

#105000
1!
1*
0+
15
b10 C
b1000 W

#108000
0!
0*
1+
05

#111000
1!
1*
0+
15
b11 C

#114000
0!
0*
1+
05

#117000
1!
1*
0+
15
b100 C

#120000
0!
0*
1+
05

#123000
1!
1*
0+
15
b101 C

#126000
0!
0*
1+
05

#129000
1!
1*
0+
15
b110 C

#132000
0!
0*
1+
05

#135000
1!
1*
0+
15
b111 C

#138000
0!
0*
1+
05

#141000
1!
b1001 %
1*
0+
15
b1001 9
b1000 C

#144000
0!
0*
1+
05

#147000
1!
1*
0+
15
b1001 C
b100 N

#150000
0!
0*
1+
05

#153000
1!
1*
0+
1.
b10000000000001000 3
15
1=
b10000000000001000 @
b100 A
b0 C
0T
0U
b1100 V

#156000
0!
0*
1+
05

#159000
1!
1*
0+
b10000000000001001 3
15
b10000000000001001 @
b1001 B
b1 C
b1000 X
1Y

#162000
0!
0*
1+
05

#165000
1!
1*
0+
15
b10 C
b1001 X
b1 [

#168000
0!
0*
1+
05

#171000
1!
1*
0+
15
b11 C
b10 [

#174000
0!
0*
1+
05

#177000
1!
1*
0+
15
b100 C
b11 [

#180000
0!
0*
1+
05

#183000
1!
1*
0+
15
b101 C
b100 [

#186000
0!
0*
1+
05

#189000
1!
1*
0+
15
b110 C
b101 [

#192000
0!
0*
1+
05

#195000
1!
1*
0+
15
b111 C
b110 [

#198000
0!
0*
1+
05

#201000
1!
1*
0+
15
b1000 C
b111 [

#204000
0!
0*
1+
05

#207000
1!
1*
0+
15
b1001 C
b1000 [

#210000
0!
0*
1+
05

#213000
1!
1*
0+
15
b1010 C
b1001 [

#216000
0!
0*
1+
05

#219000
1!
1*
0+
1/
00
b11011101 4
15
b1011 C
1F
1J
b11011101 K
b11011101 L
b11011101 P
b1010 [
b11011101 `

#222000
0!
0*
1+
0/
10
05

#225000
1!
1*
0+
1/
00
15
b1100 C
b1 D
1G
1M
b1011 [

#228000
0!
0*
1+
0/
10
05
0M

#231000
1!
1*
0+
1/
00
b11001100 4
15
b1101 C
b10 D
b11001100 K
b11001100 L
1M
b11001100 P
b1100 [
b11011101 \
b11001100 `

#234000
0!
0*
1+
0/
10
05
0M

#237000
1!
1*
0+
1/
00
15
b1110 C
b11 D
1M
b1101 [
b1100110011011101 \

#240000
0!
0*
1+
0/
10
05
0M

#243000
1!
1*
0+
1/
00
b10111011 4
15
b1111 C
b100 D
b10111011 K
b10111011 L
1M
b10111011 P
b1110 [
b110011001100110011011101 \
b10111011 `

#246000
0!
0*
1+
0/
10
05
0M

#249000
1!
1*
0+
1/
00
15
b10000 C
b101 D
1M
b1111 [
b10111011110011001100110011011101 \

#252000
0!
0*
1+
0/
10
05
0M

#255000
1!
1*
0+
1/
00
b10101010 4
15
b10001 C
b110 D
b10101010 K
b10101010 L
1M
b10101010 P
b10000 [
b1011101110111011110011001100110011011101 \
b10101010 `

#258000
0!
0*
1+
0/
10
05
0M

#261000
1!
1*
0+
1/
00
15
b10010 C
b111 D
1M
b10001 [
b101010101011101110111011110011001100110011011101 \

#264000
0!
0*
1+
0/
10
05
0M

#267000
1!
1*
0+
z/
z0
bz 4
15
b10011 C
b0 D
0F
0J
bz K
b0 L
1M
b110 N
b0 P
b10010 [
b10101010101010101011101110111011110011001100110011011101 \
bz `

#270000
0!
0*
1+
05
0M

#273000
1!
1*
0+
1-
b0 3
15
1<
b0 @
b110 A
b0 C
b1 D
0G
zM
0S
b11000 V
b10011 [

#276000
0!
0*
1+
05

#279000
1!
1*
0+
15
b1 C
0Y
b0 [
1]

#282000
0!
0*
1+
05

#285000
1!
1*
0+
15
b10 C
0]
b10101010101010101011101110111011110011001100110011011101 a

#288000
0!
0*
1+
05

#291000
1!
1*
0+
15
b11 C

#294000
0!
0*
1+
05

#297000
1!
1*
0+
15
b100 C

#300000
0!
0*
1+
05

#303000
1!
1*
0+
15
b101 C

#306000
0!
0*
1+
05

#309000
1!
1*
0+
15
b110 C

#312000
0!
0*
1+
05

#315000
1!
1*
0+
15
b111 C

#318000
0!
0*
1+
05

#321000
1!
1*
0+
15
b1000 C
b10 N

#324000
0!
0*
1+
05

#327000
1!
1#
0$
b1000 %
1*
0+
b11100000000000000 3
15
17
08
b1000 9
b11100000000000000 @
b10 A
b0 C
b11 N
1S
1T
1U
b11111 V

#330000
0!
0*
1+
05

#333000
1!
1'
1*
0+
0-
0.
b11100000000001001 3
15
0<
0=
b11100000000001001 @
b11 A
0H
1I
b111 V

#336000
0!
0*
1+
05

#339000
1!
0#
0'
1*
0+
b11100000000001000 3
15
07
b11100000000001000 @
b1000 B
b1 C
0I
b1001 W
b0 a

#342000
0!
0*
1+
05

#345000
1!
1*
0+
15
b10 C
b1000 W
b10101010101010101011101110111011110011001100110011011101 a

#348000
0!
0*
1+
05

#351000
1!
1*
0+
15
b11 C

#354000
0!
0*
1+
05

#357000
1!
1*
0+
15
b100 C

#360000
0!
0*
1+
05

#363000
1!
1*
0+
15
b101 C

#366000
0!
0*
1+
05

#369000
1!
1*
0+
15
b110 C

#372000
0!
0*
1+
05

#375000
1!
1*
0+
15
b111 C

#378000
0!
0*
1+
05

#381000
1!
b1001 %
1*
0+
15
b1001 9
b1000 C

#384000
0!
0*
1+
05

#387000
1!
1*
0+
15
b1001 C
b101 N

#390000
0!
0*
1+
05

#393000
1!
1*
0+
1.
b10100000000001000 3
15
1=
b10100000000001000 @
b101 A
b0 C
0T
b1101 V

#396000
0!
0*
1+
05

#399000
1!
1*
0+
b10100000000001001 3
15
b10100000000001001 @
b1001 B
b1 C
b1000 X
1Z
b0 a

#402000
0!
0*
1+
05

#405000
1!
1*
0+
15
b10 C
b1001 X
b1 [
b10101010101010101011101110111011110011001100110011011101 a

#408000
0!
0*
1+
05

#411000
1!
1*
0+
15
b11 C
b10 [

#414000
0!
0*
1+
05

#417000
1!
1*
0+
15
b100 C
b11 [

#420000
0!
0*
1+
05

#423000
1!
1*
0+
15
b101 C
b100 [

#426000
0!
0*
1+
05

#429000
1!
1*
0+
15
b110 C
b101 [

#432000
0!
0*
1+
05

#435000
1!
1*
0+
15
b111 C
b110 [

#438000
0!
0*
1+
05

#441000
1!
1*
0+
15
b1000 C
b111 [

#444000
0!
0*
1+
05

#447000
1!
1*
0+
15
b1001 C
b1000 [

#450000
0!
0*
1+
05

#453000
1!
1*
0+
15
b1010 C
1F
b1001 [

#456000
0!
0*
1+
05

#459000
1!
1*
0+
1/
00
b11011101 4
15
b1011 C
bz10101010101010101011101110111011110011001100110011011101 E
1G
b11011101 K
b1010 [
b11011101 ^
1_
b11011101 `

#462000
0!
0*
1+
0/
10
05

#465000
1!
1*
0+
1/
00
15
b1100 C
b11011101zzzzzzzz101010101010101010111011101110111100110011001100 E
b1011 [

#468000
0!
0*
1+
0/
10
05

#471000
1!
1*
0+
1/
00
b11001100 4
15
b1101 C
b1101110111011101zzzzzzzz1010101010101010101110111011101111001100 E
b11001100 K
b1100 [
b11001100 ^
b11001100 `

#474000
0!
0*
1+
0/
10
05

#477000
1!
1*
0+
1/
00
15
b1110 C
b110011001101110111011101zzzzzzzz10101010101010101011101110111011 E
b1101 [

#480000
0!
0*
1+
0/
10
05

#483000
1!
1*
0+
1/
00
b10111011 4
15
b1111 C
b11001100110011001101110111011101zzzzzzzz101010101010101010111011 E
b10111011 K
b1110 [
b10111011 ^
b10111011 `

#486000
0!
0*
1+
0/
10
05

#489000
1!
1*
0+
1/
00
15
b10000 C
b1011101111001100110011001101110111011101zzzzzzzz1010101010101010 E
b1111 [

#492000
0!
0*
1+
0/
10
05

#495000
1!
1*
0+
1/
00
b10101010 4
15
b10001 C
b101110111011101111001100110011001101110111011101zzzzzzzz10101010 E
b10101010 K
b10000 [
b10101010 ^
b10101010 `

#498000
0!
0*
1+
0/
10
05

#501000
1!
1*
0+
1/
00
15
b10010 C
b10101010101110111011101111001100110011001101110111011101zzzzzzzz E
b110 N
b10001 [

#504000
0!
0*
1+
0/
10
05

#507000
1!
1(
b1010101010101010101110111011101111001100110011001101110111011101 )
1*
0+
1-
z/
z0
b0 3
bz 4
15
1<
b0 @
b110 A
b0 C
b1010101010101010101110111011101111001100110011001101110111011101 E
bz K
1O
0S
0U
b11000 V
b10010 [
b0 ^
0_
bz `

#510000
0!
0*
1+
05

#513000
1!
1*
0+
15
b1 C
0Z
b0 [

#516000
0!
0*
1+
05

#519000
1!
1*
0+
15
b10 C

#522000
0!
0*
1+
05

#525000
1!
1*
0+
15
b11 C

#528000
0!
0*
1+
05

#531000
1!
1*
0+
15
b100 C

#534000
0!
0*
1+
05

#537000
1!
1*
0+
15
b101 C

#540000
0!
0*
1+
05

#543000
1!
1*
0+
15
b110 C

#546000
0!
0*
1+
05

#549000
1!
1*
0+
15
b111 C

#552000
0!
0*
1+
05

#555000
1!
1*
0+
15
b1000 C
b10 N

#558000
0!
0*
1+
05

#561000
1!
1*
0+
b11100000000000000 3
15
b11100000000000000 @
b10 A
b0 C
1S
1T
1U
b11111 V

#564000
0!
0*
1+
05

#567000
1!
0(
b0 )
1*
0+
15
b1 C
0O

#570000
0!
0*
1+
05

#573000
1!
1*
0+
15
b10 C

#576000
0!
0*
1+
05

#579000
1!
1*
0+
15
b11 C

#582000
0!
0*
1+
05

#585000
1!
1*
0+
15
b100 C

#588000
0!
0*
1+
05

#591000
1!
1*
0+
15
b101 C

#594000
0!
0*
1+
05

#597000
1!
1*
0+
15
b110 C

#600000
0!
0*
1+
05

#603000
1!
1*
0+
15
b111 C

#606000
0!
0*
1+
05

#609000
1!
1*
0+
15
b1000 C

